simfam: simulate and model family pedigrees with structured founders
…
You will notice several things from this random pedigree. One is that some individuals do not get paired in each generation, which happens because there are too many constraints: the number of males and females is random so they may be unequal, and close-relative avoidance further limits pairings. However, this problem is exacerbated in this toy example because the population is small; in a large population most people are paired (see further below). Here, founders that weren’t paired are not plotted (see message below figure). Pairings are always between people of the same generation (first number in ID), and usually but not always between people with close indexes (second number in ID).

When there are pairings, sim_pedigree enforces a minimum number of children per family (default 1). Each generation has exactly the desired number of total individuals (15 per generation in this example), which is achieved by randomly drawing family sizes from a modified Poisson distribution (the number of children in excess of the minimum is drawn from Poisson with target mean per family minus minimum size) followed by smaller random adjustments in the direction of the discrepancy until the target population size is met.

Pruning individuals without descendants

If we are only interested in the last generation, then individuals from previous generations that were unpaired are irrelevant, since for example they don’t determine the genotypes of the last generation. So for simplicity or efficiency, we may want to remove those individuals without descendants. We do this with the function prune_fam!

# replace original with pruned FAM table
# containing only ancestors of last generation
fam <- prune_fam( fam, ids[[ G ]] )
# inspect
fam
#> # A tibble: 33 × 6
#>    fam   id    pat   mat     sex pheno
#>    <chr> <chr> <chr> <chr> <int> <dbl>
#>  1 fam1  1-1   <NA>  <NA>      1     0
#>  2 fam1  1-2   <NA>  <NA>      2     0
#>  3 fam1  1-5   <NA>  <NA>      2     0
#>  4 fam1  1-8   <NA>  <NA>      1     0
#>  5 fam1  1-9   <NA>  <NA>      2     0
#>  6 fam1  1-10  <NA>  <NA>      2     0
#>  7 fam1  1-12  <NA>  <NA>      1     0
#>  8 fam1  1-14  <NA>  <NA>      1     0
#>  9 fam1  2-2   1-1   1-2       2     0
#> 10 fam1  2-3   1-1   1-2       2     0
#> # … with 23 more rows
…
